measureId,stratumName,shortDescription,longDescription,initialPopulationUuid,denominatorUuid,numeratorUuid,denominatorExclusionUUID,denominatorExceptionUUID
9,>=84Days,Percentage of patients who remained on an antidepressant medication for at least 84 days (12 weeks). ,Percentage of patients who remained on an antidepressant medication for at least 84 days (12 weeks). ,,,,,
9,>=180Days,Percentage of patients who remained on an antidepressant medication for at least 180 days (6 months),Percentage of patients who remained on an antidepressant medication for at least 180 days (6 months),,,,,
226,screenedForUse,Patients screened for tobacco use one or more times,Percentage of patients aged 18 years and older who were screened for tobacco use one or more times within the measurement period,,,,,
226,overall,"Screened for tobacco, identified as tobacco user that received cessation.",Percentage of patients aged 18 years and older who were identified as a tobacco user who received tobacco cessation intervention on the date of the encounter or within the previous 12 months,,,,,
226,tobacco,Patients screened for tobacco use one or more times and received cessation,Percentage of patients aged 18 years and older who were screened for tobacco use one or more times within the measurement period AND who received tobacco cessation intervention if identified as a tobacco user on the date of the encounter or within the previous 12 months,,,,,
238,overall,Ordered at least one high-risk ,Percentage of patients 65 years of age and older who were ordered at least two high-risk medications from the same drug class.,,,,,
238,diagnosisException,"Percentage of patients 65 years of age and older who were ordered at least two high-risk medications from the same drug class, except for appropriate diagnoses.","Percentage of patients 65 years of age and older who were ordered at least two high-risk medications from the same drug class, except for appropriate diagnoses.",,,,,
238,eCQMTotalRate,"Total rate (the sum of the two numerators divided by the denominator, deduplicating for patients in both numerators).","Total rate (the sum of the two numerators divided by the denominator, deduplicating for patients in both numerators).",,,,,
239,BMI,"Patients who had a height, weight and body mass index (BMI) percentile recorded during the measurement period","Patients who had a height, weight and body mass index (BMI) percentile recorded during the measurement period",,,,,
239,nutrition,Patients who had counseling for nutrition during a visit that occurs during the measurement period,Patients who had counseling for nutrition during a visit that occurs during the measurement period,,,,,
239,physicalActivity,Patients who had counseling for physical activity during a visit that occurs during the measurement period,Patients who had counseling for physical activity during a visit that occurs during the measurement period,,,,,
305,14DaysOfDiagnosis,Patients who initiated treatment within 14 days of the diagnosis,Patients who initiated treatment within 14 days of the diagnosis,,,,,
305,30DaysOfVisit,Patients who initiated treatment and who had two or more additional services with an AOD diagnosis within 30 days of the initiation visit,Patients who initiated treatment and who had two or more additional services with an AOD diagnosis within 30 days of the initiation visit,,,,,
366,visitWithin30Days,Percentage of children who had one follow-up visit with a practitioner with prescribing authority during the 30-Day Initiation Phase.,Percentage of children who had one follow-up visit with a practitioner with prescribing authority during the 30-Day Initiation Phase.,,,,,
366,overall,"Percentage of children who remained on ADHD medication for at least 210 days and who, in addition to the visit in the Initiation Phase, had at least two additional follow-up visits with a practitioner within 270 days (9 months) after the Initiation Phase ended.","Percentage of children who remained on ADHD medication for at least 210 days and who, in addition to the visit in the Initiation Phase, had at least two additional follow-up visits with a practitioner within 270 days (9 months) after the Initiation Phase ended.",,,,,
370,12-17yrs,"Percentage of adolescent patients (aged 12-17 years) with a diagnosis of major depression or dysthymia and an
initial PHQ-9 or PHQ-9M score greater than nine during the index event who reached remission at twelve
months as demonstrated by a twelve month (+/-60 days) PHQ-9 or PHQ-9M score of less than 5.","Percentage of adolescent patients (aged 12-17 years) with a diagnosis of major depression or dysthymia and an
initial PHQ-9 or PHQ-9M score greater than nine during the index event who reached remission at twelve
months as demonstrated by a twelve month (+/-60 days) PHQ-9 or PHQ-9M score of less than 5.",,,,,
370,18+,"Percentage of adult patients (aged 18 years or older) with a diagnosis of major depression or dysthymia and an
initial PHQ-9 or PHQ-9M score greater than nine during the index event who reached remission at twelve
months as demonstrated by a twelve month (+/-60 days) PHQ-9 or PHQ-9M score of less than 5.","Percentage of adult patients (aged 18 years or older) with a diagnosis of major depression or dysthymia and an
initial PHQ-9 or PHQ-9M score greater than nine during the index event who reached remission at twelve
months as demonstrated by a twelve month (+/-60 days) PHQ-9 or PHQ-9M score of less than 5.",,,,,
391,30days,Discharges received follow up 30 days,The percentage of discharges for which the patient received follow-up within 30 days after discharge,,,,,
391,overall,Discharges received follow up 7 days,The percentage of discharges for which the patient received follow-up within 7 days after discharge,,,,,
392,18-64F,Cardiac tamponade/pericardiocentesis females 18-64 years,Females 18-64 years of age,,,,,
392,18-64M,Cardiac tamponade/pericardiocentesis males 18-64 years,Males 18-64 years of age,,,,,
392,65+F,Cardiac tamponade/pericardiocentesis females 65 years and older,Females 65 years of age and older,,,,,
392,65+M,Cardiac tamponade/pericardiocentesis males 65 years and older,Males 65 years of age and older ,,,,,
392,overall,Overall cardiac tamponade/pericardiocentesis female and males 18 years and older,Overall percentage of patients with cardiac tamponade and/or pericardiocentesis occurring within 30 days,,,,,
394,meningococcal,One dose of meningococcal vaccine,Patients who had one dose of meningococcal vaccine on or between the patient's 11th and 13th birthdays,,,,,
394,Tdap,"One tetanus, diphtheria toxoids and acellular pertussis vaccine","Patients who had one tetanus, diphtheria toxoids and acellular pertussis vaccine (Tdap) on or between the patient's 10th and 13th birthdays",,,,,
394,HPV,Completed the HPV vaccine ,Patients who have completed the HPV vaccine with defferent dates of service on or between the patient's 9th and 13th birthdays,,,,,
394,overall,"Compliant for Meningococcal, Tdap and HPV","All patients who are compliant for Meningococcal, Tdap and HPV during the specified timeframes",,,,,
398,overall,"5-50 years well-controlled asthma, without elevated risk of exacerbation","Overall Percentage for patients (aged 5-50 years) with well-controlled asthma, without elevated risk of exacerbation",,,,,
398,5-17yrs,"5-17 years well-controlled asthma, without elevated risk of exacerbation","Percentage of pediatric patients (aged 5-17 years) with well-controlled asthma, without elevated risk of exacerbation.",,,,,
398,18-50,"18-50 years well-controlled asthma, without elevated risk of exacerbation","Percentage of adult patients (aged 18-50 years) with well-controlled asthma, without elevated risk of exacerbation",,,,,
398,ACT5-17,5 to 17 asthma well-controlled specified asthma control tool result,Asthma well-controlled (submit the most recent specified asthma control tool result) for patients 5 to 17 with Asthma,,,,,
398,ACT18-50,18 to 50 asthma well-controlled specified asthma control tool result,Asthma well-controlled (submit the most recent specified asthma control tool result) for patients 18 to 50 with Asthma ,,,,,
398,lowRisk5-17,5 to 17 with asthma elevated risk of exacerbation,Patient not at elevated risk of exacerbation for patients 5 to 17 with Asthma,,,,,
398,lowRisk18-50,18 to 50 with asthma elevated risk of exacerbation,Patient not at elevated risk of exacerbation for patients 18 to 50 with Asthma,,,,,
431,screenedForUse,Percentage of patients aged 18 years and older who were screened for unhealthy alcohol use using a systematic screening method at least once within the last 12 months,Percentage of patients aged 18 years and older who were screened for unhealthy alcohol use using a systematic screening method at least once within the last 12 months,,,,,
431,overall,Percentage of patients aged 18 years and older who were identified as unhealthy alcohol users who received brief counseling,Percentage of patients aged 18 years and older who were identified as unhealthy alcohol users who received brief counseling,,,,,
431,counseling,Percentage of patients aged 18 years and older who were screened for unhealthy alcohol use using a systematic screening method at least once within the last 12 months AND who received brief counseling if identified as unhealthy alcohol users,Percentage of patients aged 18 years and older who were screened for unhealthy alcohol use using a systematic screening method at least once within the last 12 months AND who received brief counseling if identified as unhealthy alcohol users,,,,,